-- Merging decision tree log ---
manifest
ADDED from C:\Users\Joey\Desktop\TimeLapse2\app\src\main\AndroidManifest.xml:16:1-100:12
	package
		ADDED from C:\Users\Joey\Desktop\TimeLapse2\app\src\main\AndroidManifest.xml:17:5-34
		INJECTED from C:\Users\Joey\Desktop\TimeLapse2\app\src\main\AndroidManifest.xml
		INJECTED from C:\Users\Joey\Desktop\TimeLapse2\app\src\main\AndroidManifest.xml
	android:versionName
		ADDED from C:\Users\Joey\Desktop\TimeLapse2\app\src\main\AndroidManifest.xml:20:5-30
		INJECTED from C:\Users\Joey\Desktop\TimeLapse2\app\src\main\AndroidManifest.xml
		INJECTED from C:\Users\Joey\Desktop\TimeLapse2\app\src\main\AndroidManifest.xml
	android:versionCode
		ADDED from C:\Users\Joey\Desktop\TimeLapse2\app\src\main\AndroidManifest.xml:19:5-28
		INJECTED from C:\Users\Joey\Desktop\TimeLapse2\app\src\main\AndroidManifest.xml
		INJECTED from C:\Users\Joey\Desktop\TimeLapse2\app\src\main\AndroidManifest.xml
	xmlns:android
		ADDED from C:\Users\Joey\Desktop\TimeLapse2\app\src\main\AndroidManifest.xml:16:11-69
	android:installLocation
		ADDED from C:\Users\Joey\Desktop\TimeLapse2\app\src\main\AndroidManifest.xml:18:5-45
uses-feature#android.software.leanback
ADDED from C:\Users\Joey\Desktop\TimeLapse2\app\src\main\AndroidManifest.xml:22:5-24:36
	android:required
		ADDED from C:\Users\Joey\Desktop\TimeLapse2\app\src\main\AndroidManifest.xml:24:9-33
	android:name
		ADDED from C:\Users\Joey\Desktop\TimeLapse2\app\src\main\AndroidManifest.xml:23:9-49
application
ADDED from C:\Users\Joey\Desktop\TimeLapse2\app\src\main\AndroidManifest.xml:25:5-69:19
MERGED from [TimeLapse2:unityvractivity:unspecified] C:\Users\Joey\Desktop\TimeLapse2\app\build\intermediates\exploded-aar\TimeLapse2\unityvractivity\unspecified\AndroidManifest.xml:5:5-6:19
MERGED from [com.android.support:appcompat-v7:23.2.1] C:\Users\Joey\Desktop\TimeLapse2\app\build\intermediates\exploded-aar\com.android.support\appcompat-v7\23.2.1\AndroidManifest.xml:25:5-20
MERGED from [com.android.support:support-v4:23.2.1] C:\Users\Joey\Desktop\TimeLapse2\app\build\intermediates\exploded-aar\com.android.support\support-v4\23.2.1\AndroidManifest.xml:22:5-20
MERGED from [com.android.support:animated-vector-drawable:23.2.1] C:\Users\Joey\Desktop\TimeLapse2\app\build\intermediates\exploded-aar\com.android.support\animated-vector-drawable\23.2.1\AndroidManifest.xml:7:5-20
MERGED from [com.android.support:support-vector-drawable:23.2.1] C:\Users\Joey\Desktop\TimeLapse2\app\build\intermediates\exploded-aar\com.android.support\support-vector-drawable\23.2.1\AndroidManifest.xml:7:5-20
MERGED from [com.android.support:support-v4:23.2.1] C:\Users\Joey\Desktop\TimeLapse2\app\build\intermediates\exploded-aar\com.android.support\support-v4\23.2.1\AndroidManifest.xml:22:5-20
MERGED from [com.android.support:support-vector-drawable:23.2.1] C:\Users\Joey\Desktop\TimeLapse2\app\build\intermediates\exploded-aar\com.android.support\support-vector-drawable\23.2.1\AndroidManifest.xml:7:5-20
MERGED from [com.android.support:support-v4:23.2.1] C:\Users\Joey\Desktop\TimeLapse2\app\build\intermediates\exploded-aar\com.android.support\support-v4\23.2.1\AndroidManifest.xml:22:5-20
MERGED from [com.android.support:support-v4:23.2.1] C:\Users\Joey\Desktop\TimeLapse2\app\build\intermediates\exploded-aar\com.android.support\support-v4\23.2.1\AndroidManifest.xml:22:5-20
MERGED from [com.android.support:design:23.2.1] C:\Users\Joey\Desktop\TimeLapse2\app\build\intermediates\exploded-aar\com.android.support\design\23.2.1\AndroidManifest.xml:22:5-20
MERGED from [com.android.support:support-v4:23.2.1] C:\Users\Joey\Desktop\TimeLapse2\app\build\intermediates\exploded-aar\com.android.support\support-v4\23.2.1\AndroidManifest.xml:22:5-20
MERGED from [com.android.support:appcompat-v7:23.2.1] C:\Users\Joey\Desktop\TimeLapse2\app\build\intermediates\exploded-aar\com.android.support\appcompat-v7\23.2.1\AndroidManifest.xml:25:5-20
MERGED from [com.android.support:support-v4:23.2.1] C:\Users\Joey\Desktop\TimeLapse2\app\build\intermediates\exploded-aar\com.android.support\support-v4\23.2.1\AndroidManifest.xml:22:5-20
MERGED from [com.android.support:animated-vector-drawable:23.2.1] C:\Users\Joey\Desktop\TimeLapse2\app\build\intermediates\exploded-aar\com.android.support\animated-vector-drawable\23.2.1\AndroidManifest.xml:7:5-20
MERGED from [com.android.support:support-vector-drawable:23.2.1] C:\Users\Joey\Desktop\TimeLapse2\app\build\intermediates\exploded-aar\com.android.support\support-vector-drawable\23.2.1\AndroidManifest.xml:7:5-20
MERGED from [com.android.support:support-v4:23.2.1] C:\Users\Joey\Desktop\TimeLapse2\app\build\intermediates\exploded-aar\com.android.support\support-v4\23.2.1\AndroidManifest.xml:22:5-20
MERGED from [com.android.support:support-vector-drawable:23.2.1] C:\Users\Joey\Desktop\TimeLapse2\app\build\intermediates\exploded-aar\com.android.support\support-vector-drawable\23.2.1\AndroidManifest.xml:7:5-20
MERGED from [com.android.support:support-v4:23.2.1] C:\Users\Joey\Desktop\TimeLapse2\app\build\intermediates\exploded-aar\com.android.support\support-v4\23.2.1\AndroidManifest.xml:22:5-20
MERGED from [com.android.support:support-v4:23.2.1] C:\Users\Joey\Desktop\TimeLapse2\app\build\intermediates\exploded-aar\com.android.support\support-v4\23.2.1\AndroidManifest.xml:22:5-20
	android:label
		ADDED from C:\Users\Joey\Desktop\TimeLapse2\app\src\main\AndroidManifest.xml:29:9-41
	android:icon
		ADDED from C:\Users\Joey\Desktop\TimeLapse2\app\src\main\AndroidManifest.xml:27:9-42
	android:banner
		ADDED from C:\Users\Joey\Desktop\TimeLapse2\app\src\main\AndroidManifest.xml:26:9-46
	android:theme
		ADDED from C:\Users\Joey\Desktop\TimeLapse2\app\src\main\AndroidManifest.xml:30:9-40
	android:isGame
		ADDED from C:\Users\Joey\Desktop\TimeLapse2\app\src\main\AndroidManifest.xml:28:9-30
activity#com.google.unity.GoogleUnityActivity
ADDED from C:\Users\Joey\Desktop\TimeLapse2\app\src\main\AndroidManifest.xml:31:9-46:20
	android:screenOrientation
		ADDED from C:\Users\Joey\Desktop\TimeLapse2\app\src\main\AndroidManifest.xml:36:13-56
	android:label
		ADDED from C:\Users\Joey\Desktop\TimeLapse2\app\src\main\AndroidManifest.xml:34:13-45
	android:launchMode
		ADDED from C:\Users\Joey\Desktop\TimeLapse2\app\src\main\AndroidManifest.xml:35:13-44
	android:configChanges
		ADDED from C:\Users\Joey\Desktop\TimeLapse2\app\src\main\AndroidManifest.xml:33:13-170
	android:name
		ADDED from C:\Users\Joey\Desktop\TimeLapse2\app\src\main\AndroidManifest.xml:32:13-64
intent-filter#android.intent.category.LEANBACK_LAUNCHER+com.google.intent.category.CARDBOARD
ADDED from C:\Users\Joey\Desktop\TimeLapse2\app\src\main\AndroidManifest.xml:37:13-41:29
category#com.google.intent.category.CARDBOARD
ADDED from C:\Users\Joey\Desktop\TimeLapse2\app\src\main\AndroidManifest.xml:39:17-81
	android:name
		ADDED from C:\Users\Joey\Desktop\TimeLapse2\app\src\main\AndroidManifest.xml:39:27-78
category#android.intent.category.LEANBACK_LAUNCHER
ADDED from C:\Users\Joey\Desktop\TimeLapse2\app\src\main\AndroidManifest.xml:40:17-86
	android:name
		ADDED from C:\Users\Joey\Desktop\TimeLapse2\app\src\main\AndroidManifest.xml:40:27-83
meta-data#unityplayer.UnityActivity
ADDED from C:\Users\Joey\Desktop\TimeLapse2\app\src\main\AndroidManifest.xml:42:13-44:40
	android:value
		ADDED from C:\Users\Joey\Desktop\TimeLapse2\app\src\main\AndroidManifest.xml:44:17-37
	android:name
		ADDED from C:\Users\Joey\Desktop\TimeLapse2\app\src\main\AndroidManifest.xml:43:17-57
activity#com.TimeLapse.Unity.android.MainActivity
ADDED from C:\Users\Joey\Desktop\TimeLapse2\app\src\main\AndroidManifest.xml:47:9-55:20
	android:theme
		ADDED from C:\Users\Joey\Desktop\TimeLapse2\app\src\main\AndroidManifest.xml:49:13-56
	android:name
		ADDED from C:\Users\Joey\Desktop\TimeLapse2\app\src\main\AndroidManifest.xml:48:13-49
intent-filter#android.intent.action.MAIN+android.intent.category.LAUNCHER
ADDED from C:\Users\Joey\Desktop\TimeLapse2\app\src\main\AndroidManifest.xml:50:13-54:29
	android:label
		ADDED from C:\Users\Joey\Desktop\TimeLapse2\app\src\main\AndroidManifest.xml:50:28-62
action#android.intent.action.MAIN
ADDED from C:\Users\Joey\Desktop\TimeLapse2\app\src\main\AndroidManifest.xml:51:17-69
	android:name
		ADDED from C:\Users\Joey\Desktop\TimeLapse2\app\src\main\AndroidManifest.xml:51:25-66
category#android.intent.category.LAUNCHER
ADDED from C:\Users\Joey\Desktop\TimeLapse2\app\src\main\AndroidManifest.xml:53:17-77
	android:name
		ADDED from C:\Users\Joey\Desktop\TimeLapse2\app\src\main\AndroidManifest.xml:53:27-74
activity#com.TimeLapse.Unity.android.Hoofdstukken
ADDED from C:\Users\Joey\Desktop\TimeLapse2\app\src\main\AndroidManifest.xml:57:9-64:20
	android:theme
		ADDED from C:\Users\Joey\Desktop\TimeLapse2\app\src\main\AndroidManifest.xml:59:13-56
	android:name
		ADDED from C:\Users\Joey\Desktop\TimeLapse2\app\src\main\AndroidManifest.xml:58:13-49
meta-data#android.support.PARENT_ACTIVITY
ADDED from C:\Users\Joey\Desktop\TimeLapse2\app\src\main\AndroidManifest.xml:60:13-62:57
	android:value
		ADDED from C:\Users\Joey\Desktop\TimeLapse2\app\src\main\AndroidManifest.xml:62:17-54
	android:name
		ADDED from C:\Users\Joey\Desktop\TimeLapse2\app\src\main\AndroidManifest.xml:61:17-63
meta-data#IMMERSIVE_MODE
ADDED from C:\Users\Joey\Desktop\TimeLapse2\app\src\main\AndroidManifest.xml:65:9-67:36
	android:value
		ADDED from C:\Users\Joey\Desktop\TimeLapse2\app\src\main\AndroidManifest.xml:67:13-33
	android:name
		ADDED from C:\Users\Joey\Desktop\TimeLapse2\app\src\main\AndroidManifest.xml:66:13-42
uses-sdk
ADDED from C:\Users\Joey\Desktop\TimeLapse2\app\src\main\AndroidManifest.xml:72:5-74:41
MERGED from [com.android.support:appcompat-v7:23.2.1] C:\Users\Joey\Desktop\TimeLapse2\app\build\intermediates\exploded-aar\com.android.support\appcompat-v7\23.2.1\AndroidManifest.xml:21:5-23:78
MERGED from [com.android.support:support-v4:23.2.1] C:\Users\Joey\Desktop\TimeLapse2\app\build\intermediates\exploded-aar\com.android.support\support-v4\23.2.1\AndroidManifest.xml:20:5-43
MERGED from [com.android.support:animated-vector-drawable:23.2.1] C:\Users\Joey\Desktop\TimeLapse2\app\build\intermediates\exploded-aar\com.android.support\animated-vector-drawable\23.2.1\AndroidManifest.xml:5:5-44
MERGED from [com.android.support:support-vector-drawable:23.2.1] C:\Users\Joey\Desktop\TimeLapse2\app\build\intermediates\exploded-aar\com.android.support\support-vector-drawable\23.2.1\AndroidManifest.xml:5:5-43
MERGED from [com.android.support:support-v4:23.2.1] C:\Users\Joey\Desktop\TimeLapse2\app\build\intermediates\exploded-aar\com.android.support\support-v4\23.2.1\AndroidManifest.xml:20:5-43
MERGED from [com.android.support:support-vector-drawable:23.2.1] C:\Users\Joey\Desktop\TimeLapse2\app\build\intermediates\exploded-aar\com.android.support\support-vector-drawable\23.2.1\AndroidManifest.xml:5:5-43
MERGED from [com.android.support:support-v4:23.2.1] C:\Users\Joey\Desktop\TimeLapse2\app\build\intermediates\exploded-aar\com.android.support\support-v4\23.2.1\AndroidManifest.xml:20:5-43
MERGED from [com.android.support:support-v4:23.2.1] C:\Users\Joey\Desktop\TimeLapse2\app\build\intermediates\exploded-aar\com.android.support\support-v4\23.2.1\AndroidManifest.xml:20:5-43
MERGED from [com.android.support:design:23.2.1] C:\Users\Joey\Desktop\TimeLapse2\app\build\intermediates\exploded-aar\com.android.support\design\23.2.1\AndroidManifest.xml:20:5-43
MERGED from [com.android.support:support-v4:23.2.1] C:\Users\Joey\Desktop\TimeLapse2\app\build\intermediates\exploded-aar\com.android.support\support-v4\23.2.1\AndroidManifest.xml:20:5-43
MERGED from [com.android.support:appcompat-v7:23.2.1] C:\Users\Joey\Desktop\TimeLapse2\app\build\intermediates\exploded-aar\com.android.support\appcompat-v7\23.2.1\AndroidManifest.xml:21:5-23:78
MERGED from [com.android.support:support-v4:23.2.1] C:\Users\Joey\Desktop\TimeLapse2\app\build\intermediates\exploded-aar\com.android.support\support-v4\23.2.1\AndroidManifest.xml:20:5-43
MERGED from [com.android.support:animated-vector-drawable:23.2.1] C:\Users\Joey\Desktop\TimeLapse2\app\build\intermediates\exploded-aar\com.android.support\animated-vector-drawable\23.2.1\AndroidManifest.xml:5:5-44
MERGED from [com.android.support:support-vector-drawable:23.2.1] C:\Users\Joey\Desktop\TimeLapse2\app\build\intermediates\exploded-aar\com.android.support\support-vector-drawable\23.2.1\AndroidManifest.xml:5:5-43
MERGED from [com.android.support:support-v4:23.2.1] C:\Users\Joey\Desktop\TimeLapse2\app\build\intermediates\exploded-aar\com.android.support\support-v4\23.2.1\AndroidManifest.xml:20:5-43
MERGED from [com.android.support:support-vector-drawable:23.2.1] C:\Users\Joey\Desktop\TimeLapse2\app\build\intermediates\exploded-aar\com.android.support\support-vector-drawable\23.2.1\AndroidManifest.xml:5:5-43
MERGED from [com.android.support:support-v4:23.2.1] C:\Users\Joey\Desktop\TimeLapse2\app\build\intermediates\exploded-aar\com.android.support\support-v4\23.2.1\AndroidManifest.xml:20:5-43
MERGED from [com.android.support:recyclerview-v7:23.2.1] C:\Users\Joey\Desktop\TimeLapse2\app\build\intermediates\exploded-aar\com.android.support\recyclerview-v7\23.2.1\AndroidManifest.xml:20:5-43
MERGED from [com.android.support:support-v4:23.2.1] C:\Users\Joey\Desktop\TimeLapse2\app\build\intermediates\exploded-aar\com.android.support\support-v4\23.2.1\AndroidManifest.xml:20:5-43
	tools:overrideLibrary
		ADDED from [com.android.support:appcompat-v7:23.2.1] C:\Users\Joey\Desktop\TimeLapse2\app\build\intermediates\exploded-aar\com.android.support\appcompat-v7\23.2.1\AndroidManifest.xml:23:9-75
	android:targetSdkVersion
		ADDED from C:\Users\Joey\Desktop\TimeLapse2\app\src\main\AndroidManifest.xml:74:9-38
		INJECTED from C:\Users\Joey\Desktop\TimeLapse2\app\src\main\AndroidManifest.xml
		INJECTED from C:\Users\Joey\Desktop\TimeLapse2\app\src\main\AndroidManifest.xml
	android:minSdkVersion
		ADDED from C:\Users\Joey\Desktop\TimeLapse2\app\src\main\AndroidManifest.xml:73:9-35
		INJECTED from C:\Users\Joey\Desktop\TimeLapse2\app\src\main\AndroidManifest.xml
		INJECTED from C:\Users\Joey\Desktop\TimeLapse2\app\src\main\AndroidManifest.xml
uses-feature#0x00020000
ADDED from C:\Users\Joey\Desktop\TimeLapse2\app\src\main\AndroidManifest.xml:76:5-54
	android:glEsVersion
		ADDED from C:\Users\Joey\Desktop\TimeLapse2\app\src\main\AndroidManifest.xml:76:19-51
uses-feature#android.hardware.sensor.accelerometer
ADDED from C:\Users\Joey\Desktop\TimeLapse2\app\src\main\AndroidManifest.xml:77:5-79:35
	android:required
		ADDED from C:\Users\Joey\Desktop\TimeLapse2\app\src\main\AndroidManifest.xml:79:9-32
	android:name
		ADDED from C:\Users\Joey\Desktop\TimeLapse2\app\src\main\AndroidManifest.xml:78:9-61
uses-feature#android.hardware.sensor.gyroscope
ADDED from C:\Users\Joey\Desktop\TimeLapse2\app\src\main\AndroidManifest.xml:80:5-82:35
	android:required
		ADDED from C:\Users\Joey\Desktop\TimeLapse2\app\src\main\AndroidManifest.xml:82:9-32
	android:name
		ADDED from C:\Users\Joey\Desktop\TimeLapse2\app\src\main\AndroidManifest.xml:81:9-57
uses-permission#android.permission.NFC
ADDED from C:\Users\Joey\Desktop\TimeLapse2\app\src\main\AndroidManifest.xml:84:5-62
	android:name
		ADDED from C:\Users\Joey\Desktop\TimeLapse2\app\src\main\AndroidManifest.xml:84:22-59
uses-permission#android.permission.READ_EXTERNAL_STORAGE
ADDED from C:\Users\Joey\Desktop\TimeLapse2\app\src\main\AndroidManifest.xml:85:5-80
	android:name
		ADDED from C:\Users\Joey\Desktop\TimeLapse2\app\src\main\AndroidManifest.xml:85:22-77
uses-permission#android.permission.WRITE_EXTERNAL_STORAGE
ADDED from C:\Users\Joey\Desktop\TimeLapse2\app\src\main\AndroidManifest.xml:86:5-81
	android:name
		ADDED from C:\Users\Joey\Desktop\TimeLapse2\app\src\main\AndroidManifest.xml:86:22-78
uses-permission#android.permission.INTERNET
ADDED from C:\Users\Joey\Desktop\TimeLapse2\app\src\main\AndroidManifest.xml:87:5-67
	android:name
		ADDED from C:\Users\Joey\Desktop\TimeLapse2\app\src\main\AndroidManifest.xml:87:22-64
uses-feature#android.hardware.touchscreen
ADDED from C:\Users\Joey\Desktop\TimeLapse2\app\src\main\AndroidManifest.xml:89:5-91:36
	android:required
		ADDED from C:\Users\Joey\Desktop\TimeLapse2\app\src\main\AndroidManifest.xml:91:9-33
	android:name
		ADDED from C:\Users\Joey\Desktop\TimeLapse2\app\src\main\AndroidManifest.xml:90:9-52
uses-feature#android.hardware.touchscreen.multitouch
ADDED from C:\Users\Joey\Desktop\TimeLapse2\app\src\main\AndroidManifest.xml:92:5-94:36
	android:required
		ADDED from C:\Users\Joey\Desktop\TimeLapse2\app\src\main\AndroidManifest.xml:94:9-33
	android:name
		ADDED from C:\Users\Joey\Desktop\TimeLapse2\app\src\main\AndroidManifest.xml:93:9-63
uses-feature#android.hardware.touchscreen.multitouch.distinct
ADDED from C:\Users\Joey\Desktop\TimeLapse2\app\src\main\AndroidManifest.xml:95:5-97:36
	android:required
		ADDED from C:\Users\Joey\Desktop\TimeLapse2\app\src\main\AndroidManifest.xml:97:9-33
	android:name
		ADDED from C:\Users\Joey\Desktop\TimeLapse2\app\src\main\AndroidManifest.xml:96:9-72
android:uses-permission#android.permission.READ_PHONE_STATE
IMPLIED from C:\Users\Joey\Desktop\TimeLapse2\app\src\main\AndroidManifest.xml:16:1-100:12 reason: com.google.vr.cardboard has a targetSdkVersion < 4
